{
    "extends": ["tslint:latest", "tslint-react", "tslint-eslint-rules"],
    "rulesDirectory": ["node_modules/tslint-eslint-rules/dist/rules"],
    "rules": {
        "quotemark": [
            true,
            "single",
            "jsx-double"
        ],
        "no-switch-case-fall-through": true,
        "ordered-imports": [true],
        "jsx-alignment": true,
        "jsx-no-lambda": true,
        "jsx-no-string-ref": true,
        "no-extra-boolean-cast": true,
        "no-extra-semi": true,
        "no-inner-declarations": true,
        "ter-no-sparse-arrays": true,
        "no-unexpected-multiline": true,
        "valid-typeof": true,
        "handle-callback-err": true,
        "array-bracket-spacing": [true, "always"],
        "block-spacing": [true, "always"],
        "brace-style": [true, "1tbs"],
        "object-curly-spacing": [true, "always"],
        "interface-name": [true, "never-prefix"],
        "ter-no-irregular-whitespace": true,
        "cyclomatic-complexity": [true],
        "no-var-requires": false,
        "no-floating-promises": true,
        "no-import-side-effect": [true, { "ignore-module": ".scss$" }],
        "no-default-export": true,
        "newline-before-return": true,
        "linebreak-style": [true, "LF"],
        "no-empty-interface": false
    }
}
